Movie Budgets and Revenues
…
Data

The movies data set includes basic information about each movie including budget, genre, movie studio, director, etc. A full list of the variables may be found here.

movies <- read_csv("https://raw.githubusercontent.com/danielgrijalva/movie-stats/master/movies.csv")

movies <- movies %>%
  filter(country=="USA", 
         !(genre %in% c("Musical","War","Western"))) #remove genres with < 10 movies

movies

## # A tibble: 4,868 x 15
##    budget company country director genre  gross name  rating released
##     <dbl> <chr>   <chr>   <chr>    <chr>  <dbl> <chr> <chr>  <chr>   
##  1 8.00e6 Columb USA     Rob Rei Adve 5.23e7 Stan R      1986-08
##  2 6.00e6 Paramo USA     John Hu Come 7.01e7 Ferr PG-13  1986-06
##  3 1.50e7 Paramo USA     Tony Sc Acti 1.80e8 Top  PG     1986-05
##  4 1.85e7 Twenti USA     James C Acti 8.52e7 Alie R      1986-07
##  5 9.00e6 Walt D USA     Randal  Adve 1.86e7 Flig PG     1986-08
##  6 6.00e6 De Lau USA     David L Drama 8.55e6 Blue R      1986-10
##  7 9.00e6 Paramo USA     Howard  Come 4.05e7 Pret PG-13  1986-02
##  8 1.50e7 SLM Pr USA     David C Drama 4.05e7 The  R      1986-08
##  9 6.00e6 Twenti USA     David S Come 8.20e6 Lucas PG-13  1986-03
## 10 2.50e7 Twenti USA     John Ca Acti 1.11e7 Big  PG-13  1986-07
## #  with 4,858 more rows, and 6 more variables: runtime <dbl>,
## #   score <dbl>, star <chr>, votes <dbl>, writer <chr>, year <dbl>
…
